saida.out
VCD info: dumpfile saida.vcd opened for output.
rst_n=0 start=1 state= 1 (OK)
rst_n=1 start=0 state= 1 (OK)
rst_n=1 start=1 state= 2 (OK)
rst_n=1 start=0 state= 3 (OK)
rst_n=1 start=0 state= 4 (OK)
rst_n=1 start=0 state= 3 (OK)
rst_n=1 start=0 state= 5 (OK)
rst_n=1 start=0 state= 6 (OK)
rst_n=1 start=0 state= 7 (OK)
rst_n=1 start=0 state= 8 (OK)
rst_n=1 start=1 state= 9 (OK)
rst_n=1 start=0 state= 1 (OK)
rst_n=0 start=0 state= 1 (OK)
rst_n=0 start=1 state= 1 (OK)
rst_n=1 start=1 state= 2 (OK)
rst_n=1 start=1 state= 3 (OK)
rst_n=1 start=1 state= 4 (OK)
rst_n=1 start=1 state= 3 (OK)
rst_n=1 start=1 state= 5 (OK)
rst_n=0 start=1 state= 1 (OK)
rst_n=1 start=1 state= 2 (OK)
rst_n=1 start=1 state= 3 (OK)
rst_n=1 start=1 state= 4 (OK)
rst_n=1 start=1 state= 3 (OK)
rst_n=1 start=1 state= 5 (OK)
rst_n=1 start=0 state= 6 (OK)
rst_n=1 start=0 state= 7 (OK)
rst_n=1 start=0 state= 8 (OK)
rst_n=1 start=1 state= 9 (OK)
rst_n=1 start=0 state= 1 (OK)
rst_n=1 start=1 state= 2 (OK)
rst_n=1 start=1 state= 3 (OK)
rst_n=1 start=1 state= 5 (OK)
rst_n=1 start=0 state= 6 (OK)
rst_n=1 start=0 state= 7 (OK)
rst_n=1 start=0 state= 8 (OK)
rst_n=1 start=1 state= 9 (OK)
rst_n=1 start=1 state= 1 (OK)
rst_n=1 start=1 state= 2 (OK)
rst_n=1 start=1 state= 3 (OK)
rst_n=0 start=1 state= 1 (OK)
rst_n=1 start=0 state= 1 (OK)
rst_n=1 start=1 state= 2 (OK)
rst_n=1 start=1 state= 3 (OK)
rst_n=1 start=1 state= 4 (OK)
rst_n=1 start=1 state= 3 (OK)
rst_n=1 start=1 state= 5 (OK)
rst_n=1 start=0 state= 6 (OK)
rst_n=1 start=0 state= 7 (OK)
rst_n=1 start=0 state= 8 (OK)
rst_n=1 start=1 state= 9 (OK)
rst_n=1 start=0 state= 1 (OK)
rst_n=1 start=1 state= 2 (OK)
rst_n=1 start=1 state= 3 (OK)
rst_n=1 start=1 state= 5 (OK)
rst_n=1 start=1 state= 6 (OK)
rst_n=1 start=1 state= 7 (OK)
rst_n=1 start=1 state= 8 (OK)
rst_n=1 start=1 state= 9 (OK)
rst_n=1 start=1 state= 1 (OK)
rst_n=1 start=1 state= 2 (OK)
rst_n=1 start=1 state= 3 (OK)
rst_n=1 start=1 state= 5 (OK)
rst_n=1 start=1 state= 6 (OK)
rst_n=1 start=1 state= 7 (OK)
rst_n=1 start=1 state= 8 (OK)
rst_n=0 start=1 state= 1 (OK)
rst_n=1 start=0 state= 1 (OK)
